Racial Health Disparities in the USA
…
Racial Health Disparities in the USA

Intro

The domain of the project focuses on disparities in demographics in relation to healthcare in America. By analyzing data sets on health care resources and racial demographics by state we can observe the correlation between minority groups and their access to healthcare. This project proposal aims to seek resources that most affect racial groups to find better solutions to healthcare across the US.

Summary

With the functions, we were able to calculate values to find out that the state with most medics was California, and the city with most medics was Oakland, California, while the city with the least medics was in Northfield, Minnesota, the maximum number of beds were in Tennesee, while the state with the least number was in Wyoming.

Some observations we made were that states that are larger tended to have more hospitals/medical resources available to them as the populous states have higher number of citizens seeking medical attention.

Table

## # A tibble: 50 x 6
##    health_sys_state  beds medics hospitals medical_groups discharge
##    <chr>            <int>  <int>     <int>          <int>     <int>
##  1 AL                5881   3503        29            427    286878
##  2 AR                3409   2367        24            352    153804
##  3 AZ                8373   5603        42            560    389662
##  4 CA               58282  82838       311           5180   2788734
##  5 CO               15548  11262       139           1923    747274
##  6 CT                5115   6323        23            810    266671
##  7 DC                 515   1268         2             40     23516
##  8 DE                1753   1183         5            255     86899
##  9 FL               28368  17429       112           2118   1371913
## 10 GA               14827  12652        83           1869    763506
## #  with 40 more rows
…
